748299134,517460344288720,3237037096,517449343821082
796283262,517462343527490,3284990493,517460344279044
820306121,517463344429948,3309027255,517462343518003
844290977,517464343749052,3332980738,517463344420753
868306830,517465344359593,3357003507,517464343739899
892306930,517466344313822,3381018472,517465344350149
916283839,517467343301801,3405010946,517466344304712
940260927,517468342297218,3428980195,517467343292234
964307015,517469344167489,3453010379,517468342287943
988291852,517470343485781,3477017937,517469344157610
1012261550,517471342173322,3500987201,517470343475819
1036276369,517472342740801,3525018060,517471342163715
1060284576,517473343032781,3549017461,517472342731277
1084268850,517474342327635,3573017827,517473343022799
1108292686,517475343270781,3596979378,517474342317799
1132277132,517476342572760,3620994196,517475343261674
1156307730,517477343797677,3644986773,517476342563383
1180284933,517478342797906,3669001960,517477343788134
1204286282,517479342804135,3693024840,517478342788593
1228293102,517480343038364,3717009286,517479342794156
1252308427,517481343626905,3740993753,517480343029115
1276277383,517482342283509,3765001771,517481343616928
1300269858,517483341920050,3788978563,517482342274449
1324293476,517484342854133,3813008936,517483341910137
1348285850,517485342486424,3837024538,517484342844345
1372270375,517486341791736,3861031866,517485342476533
1396293645,517487342711319,3885008810,517486341782429
1420316503,517488343613736,3909008850,517487342701929
1444263432,517489341352610,3932977820,517488343603950
1468271163,517490341624756,3957000769,517489341343346
1492309557,517491343174485,3980977839,517490341615346
1516286141,517492342148901,4005023684,517491343165408
1540286305,517493342105818,4029030965,517492342139241
1564309829,517494343035985,4053015529,517493342096761
1588309871,517495342987776,4077024165,517494343026886
1612317701,517496343264068,4101031182,517495342978782
1636309707,517497342881047,4125023491,517496343254427
1660263983,517498340926047,4149030591,517497342871989
1684302894,517499342497338,4173030518,517498340916468
1708279781,517500341484379,4197022893,517499342487467
1732271797,517501341101795,4221015135,517500341475112
1756264444,517502340745482,4245030749,517501341092694
1780264507,517503340698149,4269022318,517502340736005
1804303051,517504342254127,4292983911,517503340689087
1828318669,517505342854919,22039345,517504342244586
1852279891,517506341189273,46039374,517505342845355
1876303311,517507342115127,70047081,517506341179937
1900272873,517508340797002,94031544,517507342105311
1924266531,517509340482793,118054417,517508340787518
1948273767,517510340734335,142023528,517509340472850
1972273131,517511340657898,166023375,517510340725370
1996296116,517512341565626,190061995,517511340648493
2020296276,517513341522355,214016929,517512341555701
2044281172,517514340843084,238062067,517513341512699
2068304463,517515341763562,262046142,517514340833656
2110335946,517516341680750,286030732,517515341754530
2116296976,517517341351729,310008732,517516341670800
2140320320,517518342274396,334030935,517517341342444
2164289496,517519340940188,358045957,517518342264630
2188320164,517520342168042,382045564,517519340930775
2212319947,517521342109021,406014772,517520342158712
2236320186,517522342069084,430014849,517521342099169
2260297484,517523341073251,454006974,517522342059814
2284297596,517524341027980,478045179,517523341063522
2308320687,517525341940085,502014154,517524341018211
2332289884,517526340606772,526015005,517525341930273
2356282084,517527340231813,550053138,517526340597419
2380298188,517528340852855,574029792,517527340222815
2404275222,517529339846042,598060139,517528340843129
2428313544,517530341392751,622029234,517529339836401
2452297957,517531340693377,646060252,517530341382964
2476274950,517532339684857,670014267,517531340683862
2500298570,517533340619024,694036780,517532339675009
2524321525,517534341525505,718036354,517533340609135
2548267951,517535339243443,742028588,517534341516282
2572306396,517536340795297,766028640,517535339234242
2596298684,517537340424027,790044043,517536340785930
2620291497,517538340074653,814005438,517537340414451
2644268780,517539339078195,838051517,517538340065014
2668321921,517540341242363,862043604,517539339068410
2692322085,517541341199280,886058603,517540341232535
2716299593,517542340212198,910035690,517541341190181
2740307474,517543340490615,934058551,517542340202265
2764276658,517544339156741,958035361,517543340481099
2788283945,517545339410409,982027895,517544339147247
2812268879,517546338732763,1006035289,517545339401060
2836284903,517547339350430,1030043223,517546338723582
2860292725,517548339626409,1054004667,517547339340647
2884300411,517549339896701,1078027159,517548339616419
2908307571,517550340145055,1102027172,517549339886816
2932269481,517551338508096,1126019303,517550340135755
2956270224,517552338489137,1150057757,517551338499047
2980270436,517553338447991,1174042000,517552338479172
3004323724,517554340618283,1198011366,517553338438693
3028323464,517555340557512,1222049425,517554340609192
3052277453,517556338590574,1246056986,517555340547525
3076308994,517557339854740,1270027625,517556338581295
3100324282,517558340441761,1294003738,517557339844815
3124277960,517559338461823,1318010943,517558340432126
3148308594,517560339688239,1342041473,517559338452230
3172293111,517561338993218,1366003039,517560339678979
3196270989,517562338021571,1390018681,517561338983500
3220309799,517563339588612,1414010702,517562338011958
3244278438,517564338232049,1438002704,517563339579458
3268301579,517565339146257,1462010193,517564338222041
3292293496,517566338759569,1486040694,517565339137249
3316317566,517567339712485,1510033135,517566338749957
3340294461,517568338699900,1534002546,517567339702456
3364287337,517569338353129,1558040454,517568338690163
3388279550,517570337978732,1582055547,517569338343308
3412272223,517571337623544,1606047607,517570337969328
3436272193,517572337572335,1630024829,517571337613660
3460325948,517573339762043,1654048996,517572337562347
3484287060,517574338091855,1678009558,517573339752097
3508271937,517575337411834,1702016895,517574338082327
3532279791,517576337689125,1726016641,517575337402326
3556326644,517577339591292,1750040837,517576337679222
3580319008,517578339223209,1774032519,517577339581847
3604280044,517579337549834,1798055000,517578339213491
3628295217,517580338132064,1822039435,517579337540324
3652288294,517581337793668,1846008507,517580338122780
3676296109,517582338069335,1870039403,517581337783904
3700326977,517583339305502,1894008335,517582338060237
3748288384,517585337597669,1942007933,517584090746465
3772311806,517586338523587,1966039368,517585337588090
3814336074,517586338523587,1990046468,517586338513777
3820327328,517587339127942,2014001470,517587339118110
3844304054,517588339070422,2038032098,517588339060548
3868319445,517589338050777,2062008760,517589338041444
3892274141,517590338642070,2086047528,517590338632402
3916327987,517591336704571,2110024212,517591336695547
3940274291,517592338898093,2134054642,517592338888235
3964296920,517593336610906,2158039191,517593336601630
3988289427,517594337503824,2182023414,517594337494130
4012274671,517595337141700,2206054534,517595337132276
4054334872,517596336476931,2230046657,517596336467234
4060297408,517597337395724,2253999226,517597337386172
4084297610,517598337324392,2278029671,517598337314880
4108327981,517599337282893,2302037230,517599337273068
4132290588,517600338498310,2326014105,517600338489215
4156329089,517601336890415,2350006552,517601336881112
4180274855,517602338444582,2374029284,517602338435551
4204320841,517603336135020,2398013818,517603336125886
4228306254,517604338001062,2422044754,517604337991950
4252275490,517605337343374,2445998346,517605337333597
4276275802,517606336011666,2470044340,517606336002556
5323386,517607335974728,2494051462,517607335965181
29361893,517608336544770,2518013386,517608336535265
53354617,517609338099186,2542044899,517609338089391
77331760,517610337746123,2566044953,517610337736912
101316509,517611336743852,2589999537,517611336734058
125316336,517612336058477,2614029558,517612336049121
149362391,517613336001330,2638052588,517613335991579
173310094,517614337870246,2662029160,517614337861017
197309346,517615335641370,2686044471,517615335631475
221332330,517616335560285,2710022313,517616335550746
245339741,517617336467951,2733998432,517617336457954
269339824,517618336726804,2758029986,517618336716829
311367867,517619336680283,2782051120,517619336670350
317317529,517620336331532,2805997127,517620336322058
341348046,517621335651510,2830042923,517621335641934
365340217,517622336873051,2854019524,517622336863581
389363199,517623336496905,2878019728,517623336487332
413356178,517624337404508,2901996492,517624337395417
437348637,517625337062049,2926018944,517625337052794
461348308,517626336697902,2950042444,517626336688066
485310338,517627336634276,2974035049,517627336624525
509326351,517628335002317,2998049335,517628334992609
533365165,517629335619545,3022026678,517629335609547
557310897,517630337186773,3046027173,517630337177048
581310843,517631334875772,3070035287,517631334866216
605349248,517632334823563,3094029209,517632334813717
629326266,517633336373770,3118043317,517633336363801
653349711,517634335366269,3142044371,517634335356301
677319081,517635336293185,3166044115,517635336283822
701334809,517636334967038,3190035711,517636334957030
725334609,517637335572392,3214012099,517637335562968
749357498,517638335514121,3238042384,517638335504300
791367630,517639336417850,3262040766,517639336408821
815367834,517640336689266,3285994812,517640336679633
821334766,517641335036243,3309994908,517641335026528
845365244,517642335320907,3334048055,517642335311111
869311700,517643336540821,3358040339,517643336531174
893312216,517644334260007,3382047764,517644334250258
917358068,517645334231547,3406032271,517645334221842
941365790,517646336092004,3430017122,517646336082343
965365987,517647336363795,3453994022,517647336354303
989335517,517648336322087,3478017053,517648336312179
1013312623,517649335002577,3502017509,517649334992846
1037312940,517650333998779,3526016696,517650333988784
1061312947,517651333962069,3550033025,517651333952930
1085327978,517652333912424,3574002218,517652333902451
1109351396,517653334488717,3598017856,517653334479577
1133366811,517654335414511,3621994799,517654335404599
1157359083,517655336006784,3645996383,517655335997600
1181366772,517656335634910,3670002427,517656335625809
1205351710,517657335905327,3694032331,517657335895830
1229336319,517658335227808,3718017120,517658335218476
1253329062,517659334536606,3742024656,517659334527309
1277321340,517660334184337,3766015497,517660334174393
1301321407,517661333812631,3790015659,517661333803517
1325344405,517662333765508,3814046074,517662333756288
1349367682,517663334673780,3837999706,517663334664434
1373360277,517664335593636,3862038293,517664335584247
1397344647,517665335235180,3885999616,517665335225893
1421329381,517666334534056,3910007322,517666334524289
1445329794,517667333848037,3934014847,517667333838560
1469353031,517668333815329,3958037720,517668333805956
1493345378,517669334733560,3982030146,517669334724518
1517337457,517670334364728,4006038799,517670334355038
1541337677,517671333984771,4030006846,517671333975308
1565353528,517672333944002,4054045676,517672333935016
1589315152,517673334554483,4078030772,517673334545287
1613368908,517674332905672,4101992465,517674332896244
1637337961,517675335095445,4126015493,517675335085743
1661315398,517676333756135,4150038731,517676333746909
1685315638,517677332766118,4173992250,517677332757055
1709353897,517678332726163,4198014736,517678332716762
1733361691,517679334270270,4222022479,517679334260886
1757330796,517680334545064,4246015712,517680334536030
1781315839,517681333207920,4270030733,517681333198549
1805354246,517682332534797,4294013378,517682332524944
1829346712,517683334085069,23061210,517683334075963
1853369810,517684333721256,47068930,517684333712170
1877346711,517685334633674,71076812,517685334623732
1901339337,517686333621341,95038169,517686333611627
1925331773,517687333264132,119076126,517687333254584
1949370944,517688332899070,143068540,517688332889354
1973316860,517689334481153,167045169,517689334471874
1997355076,517690332177783,191067994,517690332168645
2021370254,517691333720159,215075788,517691333710790
2063368843,517692334302582,239038311,517692334292685
2069347491,517693333945492,263023217,517693333935830
2093339924,517694333254294,287030819,517694333244912
2117317235,517695332889115,311076769,517695332880058
2141371876,517696331893849,335032151,517696331884391
2165317901,517697334120517,359031053,517697334110704
2189325401,517698331821750,383022985,517698331811809
2213348438,517699332084292,407068403,517699332074393
2237348474,517700332994212,431037774,517700332984601
2261318060,517701332945756,455022886,517701332936435
2285348717,517702331628636,479036025,517702331619206
2309333143,517703332856057,503028315,517703332846706
2333318075,517704332157227,527051179,517704332147686
2357325786,517705331479458,551043432,517705331470145
2381318693,517706331750814,575043605,517706331741666
2405372054,517707331405379,599028039,517707331395375
2429326114,517708333578714,623058589,517708333569501
2453333764,517709331614716,647050751,517709331605730
2495368789,517710331883510,671073630,517710331873939
2501357035,517711333124177,695021298,517711333114440
2525364894,517712332753220,719043178,517712332744044
2549372679,517713333030701,743027176,517713333021732
2573357292,517714333305140,767020200,517714333295378
2597357460,517715332614120,791028512,517715332605045
2621357694,517716332571163,815036683,517716332562191
2645373264,517717332530954,839028645,517717332521900
2669334832,517718333129747,863022470,517718333120358
2693357892,517719331478560,887066499,517719331468941
2717373314,517720332389414,911035422,517720332379712
2741350640,517721332982018,935066274,517721332972921
2765373887,517722331987393,959027920,517722331978066
2789342845,517723332905997,983072428,517723332896900
2813320292,517724331562726,1007057099,517724331553358
2837343127,517725330573100,1031041677,517725330563629
2861351183,517726331474578,1055056983,517726331464774
2885335641,517727331760307,1079018259,517727331751107
2909351417,517728331062806,1103033540,517728331053128
2933366674,517729331670160,1127025611,517729331660274
2957320677,517730332255888,1151063844,517730332246148
2981336261,517731330289513,1175040984,517731330280064
3005344217,517732330888866,1199055982,517732330879459
3029366825,517733331170406,1223032929,517733331160707
3053351796,517734332062467,1247047835,517734332053477
3077359867,517735331386319,1271025670,517735331377247
3101367693,517736331672693,1295049536,517736331662893
3125352128,517737331948796,1319018943,517737331939102
3149344542,517738331250357,1343034064,517738331240852
3173359787,517739330884336,1367072783,517739330875312
3197321928,517740331469564,1391064446,517740331460521
3263369892,517742081954084,1439065003,517742081963147
3269375930,517743331983479,1463019055,517743331973690
3293337736,517744331942394,1487025950,517744331932649
3317322371,517745330301143,1511039482,517745330291733
3359368077,517746329610996,1535055001,517746329601192
3365376137,517747331486474,1559016832,517747331476693
3389346301,517748331751286,1583046871,517748331741527
3413346359,517749330458202,1607016073,517749330448674
3437369030,517750330410701,1631023397,517750330401259
3461361239,517751331305367,1655046483,517751331296010
3485323232,517752330930804,1679071598,517752330921718
3509369191,517753329297345,1703054355,517753329288322
3533323421,517754331162261,1727030971,517754331153010
3557330867,517755329205323,1751045845,517755329195905
3581346885,517756329465614,1775055461,517756329456175
3647369597,517758082749614,1823070098,517758082758779
3671369415,517759329029822,1847017099,517759329020112
3677362435,517760329619801,1871016808,517760329610508
3725346998,517762082252863,1919061966,517762082262552
3749339565,517763329788196,1943062686,517763329778740
3773355455,517764329428550,1967023802,517764329418574
3797324862,517765330040654,1991031377,517765330031657
3845347534,517767081619549,2039037190,517767081629261
3869347787,517768329560861,2063022558,517768329551449
3893355637,517769329521486,2087022053,517769329512407
3917348202,517770329798590,2111052247,517770329789241
3941340721,517771329438881,2135044672,517771329429762
3965363310,517772329077256,2159059776,517772329067533
3989363627,517773329968464,2183028829,517773329959158
4037356345,517775081570485,2231067309,517775081580345
4061379495,517776329528485,2255037082,517776329518595
4085364157,517777330443089,2279052312,517777330433219
4109333344,517778329754089,2303014280,517778329744302
4133349071,517779328420318,2327022069,517779328410968
4157379975,517780329025672,2351045307,517780329015905
4181379777,517781330263338,2375021787,517781330253488
4205333553,517782330205129,2399037793,517782330196008
4229372549,517783328229316,2423067269,517783328219341
4253349548,517784329804108,2447029250,517784329794403
4277334386,517785328795837,2471021162,517785328785986
30390132,517787080984544,2519042956,517786328104507
54374868,517788328974357,2543027993,517788328964360
78406056,517789328288461,2567027429,517789328278631
102360186,517790329537941,2591011916,517790329528631
126413551,517791327576878,2615050160,517791327567464
150367665,517792329750337,2639026941,517792329740840
174398784,517793327788587,2663018867,517793327779069
198375601,517794329035191,2687034316,517794329026131
222391284,517795328019378,2711064973,517795328009840
246375556,517796328622856,2735042102,517796328613610
270399054,517797327917585,2759019811,517797327907818
294383872,517798328846690,2783018869,517798328836943
318391358,517799328164169,2807011658,517799328154651
342376195,517800328426148,2831027465,517800328416421
366414637,517801327744460,2855012412,517801327734879
390414707,517802329296168,2879050414,517802329286878
414399534,517803329249168,2903034755,517803329239961
438376685,517804328567022,2927019299,517804328557794
462376849,517805327565063,2951058491,517805327555876
510415203,517807079687938,2999011443,517807079697292
534362741,517808329020063,3023064524,517808329010145
558385697,517809326784312,3047040754,517809326774624
582400489,517810327690854,3071063972,517810327681499
606415701,517811328257188,3095040718,517811328247895
630392736,517812328841042,3119049269,517812328831229
654362562,517813327834272,3143009699,517813327824812
702362410,517815079206648,3191024475,517815079216416
726409024,517816326420898,3215064519,517816326411479
750393294,517817328313128,3239040254,517817328303187
774370576,517818327607795,3263039381,517818327598520
798371009,517819326611275,3287008850,517819326601478
822385843,517820326579380,3311040219,517820326570228
846409479,517821327147485,3335033275,517821327137998
870393785,517822328082340,3359017720,517822328073269
894363555,517823327378507,3383055779,517823327368914
918394153,517824326069050,3407063324,517824326059246
942363333,517825327293966,3431017049,517825327284057
966378912,517826325959884,3455024606,517826325950764
990417634,517827326559051,3479039826,517827326549534
1014386795,517828328122468,3503024358,517828328112970
1038387290,517829326787635,3527015197,517829326777885
1062371386,517830326758302,3551015134,517830326748384
1086394893,517831326045718,3575061573,517831326036592
1110410383,517832326975196,3599045655,517832326965424
1134372077,517833327570612,3623030143,517833327561569
1158364849,517834325924673,3647045481,517834325914964
1182418287,517835325573589,3671052954,517835325564423
1206372245,517836327750130,3695038677,517836327740610
1230365310,517837325781859,3719045765,517837325772569
1254388126,517838325442983,3743052870,517838325433279
1278418565,517839326343649,3767006314,517839326334468
1302380050,517840327561920,3791006902,517840327552782
1326372872,517841325907294,3815030754,517841325897764
1350388508,517842325558273,3839038389,517842325548953
1374403650,517843326159814,3863022982,517843326150039
1398419034,517844326740750,3887038458,517844326730978
1422372871,517845327331792,3911030386,517845327322438
1446403947,517846325358480,3935022701,517846325349335
1470366087,517847326603314,3959029904,517847326593961
1494366247,517848324975939,3983007137,517848324966794
1518396737,517849324932669,4007045107,517849324923190
1542396459,517850326153086,4031036300,517850326143523
1584400439,517851326091565,4055020847,517851326082211
1590419910,517852325728753,4079005563,517852325718857
1614381932,517853326968795,4103043589,517853326959482
1662389484,517855077203983,4151027873,517855077213921
1686383083,517856325551296,4175059653,517856325541485
1710367368,517857325234671,4199043373,517857325225048
1758374207,517859076683484,4247050396,517859076692924
1782405513,517860324715047,4271027776,517860324705737
1806375115,517861325969463,76506,517861325959861
1830382825,517862324653005,24038517,517862324643070
1854375135,517863324924297,48045831,517863324914715
1878413258,517864324553964,72084212,517864324544589
1902398234,517865326092381,96053247,517865326082602
1926367686,517866325416485,120091832,517866325407388
1950383211,517867324093777,144092142,517867324084036
1974422560,517868324690694,168068596,517868324681472
1998399108,517869326280215,192068218,517869326270847
2022398883,517870325253132,216045013,517870325243742
2046383713,517871325193862,240090061,517871325184262
2070391502,517872324511842,264068100,517872324502345
2094391548,517873324786426,288082427,517873324777054
2118422279,517874324738405,312074231,517874324729317
2142421959,517875325968864,336043209,517875325959190
2166392626,517876325905593,360051947,517876325896525
2190415339,517877324633510,384081590,517877324624234
2214422609,517878325529906,408073876,517878325520236
2238369329,517879325782885,432073423,517879325773320
2262422661,517880323513051,456088657,517880323503590
2286369724,517881325685134,480065619,517881325675779
2310423425,517882323429613,504035356,517882323419697
2334423143,517883325617071,528050958,517883325607383
2358377221,517884325555424,552058972,517884325546072
2382408304,517885323592152,576081889,517885323583114
2406377432,517886324837235,600074238,517886324827300
2430423782,517887323501026,624089318,517887323491446
2454377381,517888325382254,648073915,517888325373071
2478392976,517889323399046,672081307,517889323389362
2502393406,517890323998900,696081244,517890323989674
2526370362,517891323966858,720081495,517891323957631
2550370877,517892322956796,744056826,517892322947649
2574400938,517893322928317,768071923,517893322919229
2598370680,517894324130859,792071834,517894324121288
2622416732,517895322820213,816087031,517895322810993
2646389674,517896324689047,840033761,517896324679386
2694409131,517898075056672,888080706,517897323501905
2718417107,517899324222547,912072339,517899324212676
2742409700,517900324504901,936041088,517900324495614
2766410304,517901324146380,960040776,517901324136760
2790371466,517902324121610,984063159,517902324112469
2814379188,517903322453464,1008032910,517903322443491
2838425404,517904322725256,1032064338,517904322716012
2862379599,517905324600903,1056056752,517905324591763
2952402131,517908073662843,1128034305,517908073672286
2958387416,517909323769447,1152034025,517909323760142
2982418474,517910322768447,1176071744,517910322758851
3006380364,517911324012531,1200056401,517911324002852
3048400645,517912322374781,1224056049,517912322364875
3054395703,517913322320948,1248032117,517913322311022
3078387971,517914322913991,1272039192,517914322904898
3102426572,517915322541908,1296069682,517915322532795
3126388509,517916324100262,1320062197,517916324090545
3150403821,517917322464430,1344069497,517917322454650
3174396249,517918323052471,1368054138,517918323043151
3198419363,517919322687013,1392046066,517919322677422
3222426979,517920323600118,1416053691,517920323590735
3246396919,517921323867534,1440084681,517921323858319
3270373633,517922322565160,1464084404,517922322555966
3294404129,517923321545015,1488061026,517923321535175
3318396781,517924322765682,1512046025,517924322756363
3342411991,517925322409600,1536039174,517925322399885
3366428010,517926322993392,1560062423,517926322984323
3390412431,517927323610872,1584077827,517927323601387
3414382513,517928322911852,1608046816,517928322901846
3438405614,517929321615395,1632085330,517929321606369
3462412838,517930322527937,1656085798,517930322518120
3486428606,517931322778979,1680039382,517931322769642
3510382235,517932323386021,1704063010,517932323376207
3576401117,517934073012418,1752075699,517934073022272
3582390371,517935323227980,1776030308,517935323218128
3606407239,517936321593272,1800061368,517936321583462
3630413518,517937322246126,1824068166,517937322236297
3654390420,517938322457793,1848029222,517938322448173
3678406239,517939321445480,1872036422,517939321436383
3702398414,517940322054646,1896059451,517940322045342
3726414377,517941321678687,1920082572,517941321669485
3750375760,517942322293853,1944051498,517942322284171
3774421665,517943320634978,1968066673,517943320625753
3798391208,517944322497623,1992075438,517944322488459
3822383513,517945321178748,2016045093,517945321169290
3846384109,517946320808164,2040044779,517946320799059
3870429889,517947320783080,2064029364,517947320773057
3894414622,517948322640558,2088052549,517948322631306
3918430439,517949321954536,2112036893,517949321944701
3942384295,517950322563576,2136051975,517950322554534
3966376689,517951320591075,2160075660,517951320581554
3990399821,517952320224241,2184036463,517952320214573
4014407321,517953321138094,2208067068,517953321129009
4038407368,517954321400635,2232036101,517954321391279
4062422985,517955321352675,2256057756,517955321343672
4086392250,517956321953403,2280050348,517956321944108
4110392614,517957320622903,2304034687,517957320613439
4134377634,517958320588132,2328042178,517958320578646
4182377660,517960073233567,2376041930,517960073242623
4206408236,517961319815273,2400066470,517961319805808
4230377788,517962321039250,2424065586,517962321029805
4254393042,517963319720727,2448065001,517963319710783
4278416462,517964320306329,2472080421,517964320296719
31426105,517966072931974,2520065373,517965321223093
55449242,517967320171473,2544058536,517967320162009
79434226,517968321085514,2568065773,517968321075633
103449648,517969320409951,2592050573,517969320400529
127418788,517970321002555,2616034711,517970320992904
151434355,517971319666848,2640029226,517971319657175
175442115,517972320265515,2664043921,517972320256259
199434562,517973320538870,2688080447,517973320529384
223465431,517974320174244,2712026590,517974320164717
265433210,517975321410453,2736072350,517975321400905
271458383,517976319432578,2760025427,517976319423239
313432911,517977321016932,2784040301,517977321007677
319427392,517978321262661,2808024934,517978321253512
343420002,517979319625848,2832032385,517979319615846
367427400,517980319268015,2856070589,517980319258224
391458841,517981319526307,2880078505,517981319517059
415462051,517982320786349,2904024676,517982320776936
439458848,517983320870141,2928039707,517983320861126
463458849,517984320686745,2952024394,517984320677524
487435574,517985320636870,2976024155,517985320627213
511413092,517986319617162,3000039460,517986319607360
535451756,517987318630537,3024046900,517987318621445
559444557,517988320191516,3048024989,517988320182384
583421602,517989319841621,3072024865,517989319832135
607467230,517990318835288,3096055829,517990318825407
631444181,517991320686392,3120056049,517991320676970
673436342,517992319676142,3144051262,517992319666617
679414032,517993319948683,3168026791,517993319938804
703429497,517994318320121,3192040110,517994318310451
727459875,517995318914538,3216024483,517995318905159
751430142,517996320130267,3240071795,517996320121097
775429831,517997318841517,3264032432,517997318832493
799421976,517998318778621,3288068998,517998318769305
823414442,517999318401413,3312060932,517999318392138
847429587,518000318037601,3336060871,518000318027784
871414571,518001318618644,3360030292,518001318609158
895437513,518002317943060,3384060681,518002317933492
919414789,518003318848978,3408029903,518003318838991
943468442,518004317852291,3432045050,518004317843262
967468491,518005320037749,3456060370,518005320027888
991437914,518006319989874,3480029887,518006319980765
1015461351,518007318665916,3504021794,518007318656411
1039461448,518008319592459,3528075479,518008319583057
1063438132,518009319546564,3552061012,518009319537058
1087430831,518010318525189,3576045860,518010318516142
1159503340,518013068740191,3648069596,518013068749456
1207461956,518015068693150,3696030184,518014321033164
1231416821,518016319218150,3720077077,518016319208894
1273433384,518017317287693,3744060785,518017317278414
1279469879,518018319143236,3768021233,518018319133789
1303431479,518019319398466,3792036018,518019319389058
1327454714,518020317748591,3816074232,518020317738765
1351432216,518021318666737,3840036318,518021318657660
1375455107,518022317679425,3864066371,518022317669804
1399470380,518023318583217,3888044283,518023318574115
1423470395,518024319169634,3912043669,518024319160197
